%FSLAX45Y45*%
G04 Gerber Fmt 4.5, Leading zero omitted, Abs format (unit mm)*
G04 Created by KiCad (PCBNEW 5.1.9) date 2021-02-13 09:10:47*
%MOMM*%
%LPD*%
G01*
G04 APERTURE LIST*
%TA.AperFunction,Profile*%
%ADD10C,0.100000*%
%TD*%
%ADD11C,0.200000*%
%ADD12C,0.300000*%
G04 APERTURE END LIST*
D10*
X16340000Y-8200000D02*
X16340000Y-11200000D01*
X11340000Y-8200000D02*
X16340000Y-8200000D01*
X11340000Y-11200000D02*
X11340000Y-8200000D01*
X16340000Y-11200000D02*
X11340000Y-11200000D01*
D11*
D12*
X11621428Y-11670714D02*
X11621428Y-11370714D01*
X11692857Y-11370714D01*
X11735714Y-11385000D01*
X11764286Y-11413571D01*
X11778571Y-11442143D01*
X11792857Y-11499286D01*
X11792857Y-11542143D01*
X11778571Y-11599286D01*
X11764286Y-11627857D01*
X11735714Y-11656429D01*
X11692857Y-11670714D01*
X11621428Y-11670714D01*
X11921428Y-11670714D02*
X11921428Y-11470714D01*
X11921428Y-11527857D02*
X11935714Y-11499286D01*
X11950000Y-11485000D01*
X11978571Y-11470714D01*
X12007143Y-11470714D01*
X12107143Y-11670714D02*
X12107143Y-11470714D01*
X12107143Y-11370714D02*
X12092857Y-11385000D01*
X12107143Y-11399286D01*
X12121428Y-11385000D01*
X12107143Y-11370714D01*
X12107143Y-11399286D01*
X12292857Y-11670714D02*
X12264286Y-11656429D01*
X12250000Y-11627857D01*
X12250000Y-11370714D01*
X12450000Y-11670714D02*
X12421428Y-11656429D01*
X12407143Y-11627857D01*
X12407143Y-11370714D01*
X12792857Y-11670714D02*
X12792857Y-11370714D01*
X12892857Y-11585000D01*
X12992857Y-11370714D01*
X12992857Y-11670714D01*
X13264286Y-11670714D02*
X13264286Y-11513571D01*
X13250000Y-11485000D01*
X13221428Y-11470714D01*
X13164286Y-11470714D01*
X13135714Y-11485000D01*
X13264286Y-11656429D02*
X13235714Y-11670714D01*
X13164286Y-11670714D01*
X13135714Y-11656429D01*
X13121428Y-11627857D01*
X13121428Y-11599286D01*
X13135714Y-11570714D01*
X13164286Y-11556429D01*
X13235714Y-11556429D01*
X13264286Y-11542143D01*
X13407143Y-11470714D02*
X13407143Y-11770714D01*
X13407143Y-11485000D02*
X13435714Y-11470714D01*
X13492857Y-11470714D01*
X13521428Y-11485000D01*
X13535714Y-11499286D01*
X13550000Y-11527857D01*
X13550000Y-11613571D01*
X13535714Y-11642143D01*
X13521428Y-11656429D01*
X13492857Y-11670714D01*
X13435714Y-11670714D01*
X13407143Y-11656429D01*
X13678571Y-11642143D02*
X13692857Y-11656429D01*
X13678571Y-11670714D01*
X13664286Y-11656429D01*
X13678571Y-11642143D01*
X13678571Y-11670714D01*
X13678571Y-11485000D02*
X13692857Y-11499286D01*
X13678571Y-11513571D01*
X13664286Y-11499286D01*
X13678571Y-11485000D01*
X13678571Y-11513571D01*
M02*
