%TF.GenerationSoftware,KiCad,Pcbnew,5.1.9*%
%TF.CreationDate,2021-02-14T01:12:15-06:00*%
%TF.ProjectId,gpio-ptt-link-panel,6770696f-2d70-4747-942d-6c696e6b2d70,0.5*%
%TF.SameCoordinates,Original*%
%TF.FileFunction,Copper,L1,Top*%
%TF.FilePolarity,Positive*%
%FSLAX46Y46*%
G04 Gerber Fmt 4.6, Leading zero omitted, Abs format (unit mm)*
G04 Created by KiCad (PCBNEW 5.1.9) date 2021-02-14 01:12:15*
%MOMM*%
%LPD*%
G01*
G04 APERTURE LIST*
%TA.AperFunction,Profile*%
%ADD10C,0.050000*%
%TD*%
%TA.AperFunction,ComponentPad*%
%ADD11C,3.800000*%
%TD*%
%TA.AperFunction,ComponentPad*%
%ADD12R,1.600000X2.000000*%
%TD*%
%TA.AperFunction,ComponentPad*%
%ADD13O,1.600000X2.000000*%
%TD*%
%TA.AperFunction,ComponentPad*%
%ADD14R,1.500000X2.000000*%
%TD*%
%TA.AperFunction,ComponentPad*%
%ADD15O,2.000000X1.600000*%
%TD*%
%TA.AperFunction,ComponentPad*%
%ADD16R,2.000000X1.800000*%
%TD*%
%TA.AperFunction,ComponentPad*%
%ADD17O,2.000000X1.800000*%
%TD*%
%TA.AperFunction,ComponentPad*%
%ADD18R,2.200000X1.700000*%
%TD*%
%TA.AperFunction,ComponentPad*%
%ADD19O,2.200000X1.700000*%
%TD*%
G04 APERTURE END LIST*
D10*
X106000000Y-130000000D02*
G75*
G02*
X106000000Y-132000000I0J-1000000D01*
G01*
X110000000Y-132000000D02*
G75*
G02*
X110000000Y-130000000I0J1000000D01*
G01*
X124000000Y-130000000D02*
G75*
G02*
X124000000Y-132000000I0J-1000000D01*
G01*
X128000000Y-132000000D02*
G75*
G02*
X128000000Y-130000000I0J1000000D01*
G01*
X128000000Y-100000000D02*
G75*
G02*
X128000000Y-98000000I0J1000000D01*
G01*
X124000000Y-98000000D02*
G75*
G02*
X124000000Y-100000000I0J-1000000D01*
G01*
X110000000Y-100000000D02*
G75*
G02*
X110000000Y-98000000I0J1000000D01*
G01*
X106000000Y-98000000D02*
G75*
G02*
X106000000Y-100000000I0J-1000000D01*
G01*
X110000000Y-132000000D02*
X124000000Y-132000000D01*
X93000000Y-132000000D02*
X106000000Y-132000000D01*
X93000000Y-162000000D02*
X93000000Y-132000000D01*
X143000000Y-162000000D02*
X93000000Y-162000000D01*
X143000000Y-132000000D02*
X143000000Y-162000000D01*
X128000000Y-132000000D02*
X143000000Y-132000000D01*
X110000000Y-100000000D02*
X124000000Y-100000000D01*
X93000000Y-100000000D02*
X106000000Y-100000000D01*
X93000000Y-130000000D02*
X93000000Y-100000000D01*
X106000000Y-130000000D02*
X93000000Y-130000000D01*
X124000000Y-130000000D02*
X110000000Y-130000000D01*
X143000000Y-130000000D02*
X128000000Y-130000000D01*
X143000000Y-100000000D02*
X143000000Y-130000000D01*
X128000000Y-100000000D02*
X143000000Y-100000000D01*
X124000000Y-98000000D02*
X110000000Y-98000000D01*
X143000000Y-98000000D02*
X128000000Y-98000000D01*
X143000000Y-68000000D02*
X143000000Y-98000000D01*
X93000000Y-68000000D02*
X143000000Y-68000000D01*
X93000000Y-98000000D02*
X93000000Y-68000000D01*
X106000000Y-98000000D02*
X93000000Y-98000000D01*
D11*
%TO.P,REF\u002A\u002A,1*%
%TO.N,N/C*%
X140500000Y-159600000D03*
%TD*%
%TO.P,REF\u002A\u002A,1*%
%TO.N,N/C*%
X140500000Y-127600000D03*
%TD*%
D12*
%TO.P,D3,1*%
%TO.N,FOB_COR*%
X108400000Y-159300000D03*
D13*
%TO.P,D3,2*%
%TO.N,GND*%
X108400000Y-151680000D03*
%TD*%
D12*
%TO.P,D3,1*%
%TO.N,FOB_COR*%
X108400000Y-127300000D03*
D13*
%TO.P,D3,2*%
%TO.N,GND*%
X108400000Y-119680000D03*
%TD*%
%TO.P,C1,1*%
%TO.N,GND*%
X131200000Y-138000000D03*
%TO.P,C1,2*%
%TO.N,PTT*%
X131200000Y-143000000D03*
%TD*%
%TO.P,C1,1*%
%TO.N,GND*%
X131200000Y-106000000D03*
%TO.P,C1,2*%
%TO.N,PTT*%
X131200000Y-111000000D03*
%TD*%
%TO.P,Q2,2*%
%TO.N,Net-(Q2-Pad2)*%
X117900000Y-152300000D03*
%TO.P,Q2,3*%
%TO.N,FOB_COR*%
X115360000Y-152300000D03*
D14*
%TO.P,Q2,1*%
%TO.N,GND*%
X120440000Y-152300000D03*
%TD*%
D13*
%TO.P,Q2,2*%
%TO.N,Net-(Q2-Pad2)*%
X117900000Y-120300000D03*
%TO.P,Q2,3*%
%TO.N,FOB_COR*%
X115360000Y-120300000D03*
D14*
%TO.P,Q2,1*%
%TO.N,GND*%
X120440000Y-120300000D03*
%TD*%
D15*
%TO.P,R3,1*%
%TO.N,COR*%
X134960000Y-155100000D03*
%TO.P,R3,2*%
%TO.N,Net-(Q2-Pad2)*%
X124800000Y-155100000D03*
%TD*%
%TO.P,R3,1*%
%TO.N,COR*%
X134960000Y-123100000D03*
%TO.P,R3,2*%
%TO.N,Net-(Q2-Pad2)*%
X124800000Y-123100000D03*
%TD*%
D16*
%TO.P,D2,1*%
%TO.N,GND*%
X118300000Y-137600000D03*
D17*
%TO.P,D2,2*%
%TO.N,Net-(D2-Pad2)*%
X118300000Y-135060000D03*
%TD*%
D16*
%TO.P,D2,1*%
%TO.N,GND*%
X118300000Y-105600000D03*
D17*
%TO.P,D2,2*%
%TO.N,Net-(D2-Pad2)*%
X118300000Y-103060000D03*
%TD*%
D11*
%TO.P,REF\u002A\u002A,1*%
%TO.N,N/C*%
X95300000Y-159600000D03*
%TD*%
%TO.P,REF\u002A\u002A,1*%
%TO.N,N/C*%
X95300000Y-127600000D03*
%TD*%
%TO.P,REF\u002A\u002A,1*%
%TO.N,N/C*%
X140400000Y-134700000D03*
%TD*%
%TO.P,REF\u002A\u002A,1*%
%TO.N,N/C*%
X140400000Y-102700000D03*
%TD*%
D15*
%TO.P,R4,1*%
%TO.N,COR*%
X134960000Y-159700000D03*
%TO.P,R4,2*%
%TO.N,Net-(D4-Pad2)*%
X124800000Y-159700000D03*
%TD*%
%TO.P,R4,1*%
%TO.N,COR*%
X134960000Y-127700000D03*
%TO.P,R4,2*%
%TO.N,Net-(D4-Pad2)*%
X124800000Y-127700000D03*
%TD*%
%TO.P,R1,1*%
%TO.N,Net-(Q1-Pad2)*%
X111400000Y-139800000D03*
%TO.P,R1,2*%
%TO.N,FOB_PTT*%
X101240000Y-139800000D03*
%TD*%
%TO.P,R1,1*%
%TO.N,Net-(Q1-Pad2)*%
X111400000Y-107800000D03*
%TO.P,R1,2*%
%TO.N,FOB_PTT*%
X101240000Y-107800000D03*
%TD*%
D13*
%TO.P,Q1,2*%
%TO.N,Net-(Q1-Pad2)*%
X118300000Y-143000000D03*
%TO.P,Q1,3*%
%TO.N,PTT*%
X120840000Y-143000000D03*
D14*
%TO.P,Q1,1*%
%TO.N,GND*%
X115760000Y-143000000D03*
%TD*%
D13*
%TO.P,Q1,2*%
%TO.N,Net-(Q1-Pad2)*%
X118300000Y-111000000D03*
%TO.P,Q1,3*%
%TO.N,PTT*%
X120840000Y-111000000D03*
D14*
%TO.P,Q1,1*%
%TO.N,GND*%
X115760000Y-111000000D03*
%TD*%
D15*
%TO.P,R2,1*%
%TO.N,FOB_PTT*%
X101200000Y-135100000D03*
%TO.P,R2,2*%
%TO.N,Net-(D2-Pad2)*%
X111360000Y-135100000D03*
%TD*%
%TO.P,R2,1*%
%TO.N,FOB_PTT*%
X101200000Y-103100000D03*
%TO.P,R2,2*%
%TO.N,Net-(D2-Pad2)*%
X111360000Y-103100000D03*
%TD*%
D18*
%TO.P,J1,1*%
%TO.N,GND*%
X138000000Y-152000000D03*
D19*
%TO.P,J1,2*%
%TO.N,Audio_In_(from_FOB_Out)*%
X138000000Y-149460000D03*
%TO.P,J1,3*%
%TO.N,Audio_IN_(RX)*%
X138000000Y-146920000D03*
%TO.P,J1,4*%
%TO.N,PTT*%
X138000000Y-144380000D03*
%TO.P,J1,5*%
%TO.N,COR*%
X138000000Y-141840000D03*
%TD*%
D18*
%TO.P,J1,1*%
%TO.N,GND*%
X138000000Y-120000000D03*
D19*
%TO.P,J1,2*%
%TO.N,Audio_In_(from_FOB_Out)*%
X138000000Y-117460000D03*
%TO.P,J1,3*%
%TO.N,Audio_IN_(RX)*%
X138000000Y-114920000D03*
%TO.P,J1,4*%
%TO.N,PTT*%
X138000000Y-112380000D03*
%TO.P,J1,5*%
%TO.N,COR*%
X138000000Y-109840000D03*
%TD*%
D11*
%TO.P,REF\u002A\u002A,1*%
%TO.N,N/C*%
X95400000Y-134600000D03*
%TD*%
%TO.P,REF\u002A\u002A,1*%
%TO.N,N/C*%
X95400000Y-102600000D03*
%TD*%
D12*
%TO.P,D1,1*%
%TO.N,PTT*%
X126300000Y-143000000D03*
D13*
%TO.P,D1,2*%
%TO.N,GND*%
X126300000Y-135380000D03*
%TD*%
D12*
%TO.P,D1,1*%
%TO.N,PTT*%
X126300000Y-111000000D03*
D13*
%TO.P,D1,2*%
%TO.N,GND*%
X126300000Y-103380000D03*
%TD*%
D18*
%TO.P,J2,1*%
%TO.N,GND*%
X97600000Y-152000000D03*
D19*
%TO.P,J2,2*%
%TO.N,Audio_In_(from_FOB_Out)*%
X97600000Y-149460000D03*
%TO.P,J2,3*%
%TO.N,Audio_IN_(RX)*%
X97600000Y-146920000D03*
%TO.P,J2,4*%
%TO.N,FOB_COR*%
X97600000Y-144380000D03*
%TO.P,J2,5*%
%TO.N,FOB_PTT*%
X97600000Y-141840000D03*
%TD*%
D18*
%TO.P,J2,1*%
%TO.N,GND*%
X97600000Y-120000000D03*
D19*
%TO.P,J2,2*%
%TO.N,Audio_In_(from_FOB_Out)*%
X97600000Y-117460000D03*
%TO.P,J2,3*%
%TO.N,Audio_IN_(RX)*%
X97600000Y-114920000D03*
%TO.P,J2,4*%
%TO.N,FOB_COR*%
X97600000Y-112380000D03*
%TO.P,J2,5*%
%TO.N,FOB_PTT*%
X97600000Y-109840000D03*
%TD*%
D16*
%TO.P,D4,1*%
%TO.N,GND*%
X118300000Y-157060000D03*
D17*
%TO.P,D4,2*%
%TO.N,Net-(D4-Pad2)*%
X118300000Y-159600000D03*
%TD*%
D16*
%TO.P,D4,1*%
%TO.N,GND*%
X118300000Y-125060000D03*
D17*
%TO.P,D4,2*%
%TO.N,Net-(D4-Pad2)*%
X118300000Y-127600000D03*
%TD*%
D13*
%TO.P,C2,1*%
%TO.N,GND*%
X103700000Y-154200000D03*
%TO.P,C2,2*%
%TO.N,FOB_COR*%
X103700000Y-159200000D03*
%TD*%
%TO.P,C2,1*%
%TO.N,GND*%
X103700000Y-122200000D03*
%TO.P,C2,2*%
%TO.N,FOB_COR*%
X103700000Y-127200000D03*
%TD*%
%TO.P,D3,2*%
%TO.N,GND*%
X108400000Y-87680000D03*
D12*
%TO.P,D3,1*%
%TO.N,FOB_COR*%
X108400000Y-95300000D03*
%TD*%
D13*
%TO.P,D1,2*%
%TO.N,GND*%
X126300000Y-71380000D03*
D12*
%TO.P,D1,1*%
%TO.N,PTT*%
X126300000Y-79000000D03*
%TD*%
D11*
%TO.P,REF\u002A\u002A,1*%
%TO.N,N/C*%
X140500000Y-95600000D03*
%TD*%
%TO.P,REF\u002A\u002A,1*%
%TO.N,N/C*%
X140400000Y-70700000D03*
%TD*%
%TO.P,REF\u002A\u002A,1*%
%TO.N,N/C*%
X95300000Y-95600000D03*
%TD*%
%TO.P,REF\u002A\u002A,1*%
%TO.N,N/C*%
X95400000Y-70600000D03*
%TD*%
D17*
%TO.P,D4,2*%
%TO.N,Net-(D4-Pad2)*%
X118300000Y-95600000D03*
D16*
%TO.P,D4,1*%
%TO.N,GND*%
X118300000Y-93060000D03*
%TD*%
D15*
%TO.P,R4,2*%
%TO.N,Net-(D4-Pad2)*%
X124800000Y-95700000D03*
%TO.P,R4,1*%
%TO.N,COR*%
X134960000Y-95700000D03*
%TD*%
D13*
%TO.P,C2,2*%
%TO.N,FOB_COR*%
X103700000Y-95200000D03*
%TO.P,C2,1*%
%TO.N,GND*%
X103700000Y-90200000D03*
%TD*%
%TO.P,C1,2*%
%TO.N,PTT*%
X131200000Y-79000000D03*
%TO.P,C1,1*%
%TO.N,GND*%
X131200000Y-74000000D03*
%TD*%
D14*
%TO.P,Q2,1*%
%TO.N,GND*%
X120440000Y-88300000D03*
D13*
%TO.P,Q2,3*%
%TO.N,FOB_COR*%
X115360000Y-88300000D03*
%TO.P,Q2,2*%
%TO.N,Net-(Q2-Pad2)*%
X117900000Y-88300000D03*
%TD*%
D14*
%TO.P,Q1,1*%
%TO.N,GND*%
X115760000Y-79000000D03*
D13*
%TO.P,Q1,3*%
%TO.N,PTT*%
X120840000Y-79000000D03*
%TO.P,Q1,2*%
%TO.N,Net-(Q1-Pad2)*%
X118300000Y-79000000D03*
%TD*%
D15*
%TO.P,R3,2*%
%TO.N,Net-(Q2-Pad2)*%
X124800000Y-91100000D03*
%TO.P,R3,1*%
%TO.N,COR*%
X134960000Y-91100000D03*
%TD*%
%TO.P,R2,2*%
%TO.N,Net-(D2-Pad2)*%
X111360000Y-71100000D03*
%TO.P,R2,1*%
%TO.N,FOB_PTT*%
X101200000Y-71100000D03*
%TD*%
%TO.P,R1,2*%
%TO.N,FOB_PTT*%
X101240000Y-75800000D03*
%TO.P,R1,1*%
%TO.N,Net-(Q1-Pad2)*%
X111400000Y-75800000D03*
%TD*%
D19*
%TO.P,J2,5*%
%TO.N,FOB_PTT*%
X97600000Y-77840000D03*
%TO.P,J2,4*%
%TO.N,FOB_COR*%
X97600000Y-80380000D03*
%TO.P,J2,3*%
%TO.N,Audio_IN_(RX)*%
X97600000Y-82920000D03*
%TO.P,J2,2*%
%TO.N,Audio_In_(from_FOB_Out)*%
X97600000Y-85460000D03*
D18*
%TO.P,J2,1*%
%TO.N,GND*%
X97600000Y-88000000D03*
%TD*%
D19*
%TO.P,J1,5*%
%TO.N,COR*%
X138000000Y-77840000D03*
%TO.P,J1,4*%
%TO.N,PTT*%
X138000000Y-80380000D03*
%TO.P,J1,3*%
%TO.N,Audio_IN_(RX)*%
X138000000Y-82920000D03*
%TO.P,J1,2*%
%TO.N,Audio_In_(from_FOB_Out)*%
X138000000Y-85460000D03*
D18*
%TO.P,J1,1*%
%TO.N,GND*%
X138000000Y-88000000D03*
%TD*%
D17*
%TO.P,D2,2*%
%TO.N,Net-(D2-Pad2)*%
X118300000Y-71060000D03*
D16*
%TO.P,D2,1*%
%TO.N,GND*%
X118300000Y-73600000D03*
%TD*%
M02*
